<?xml version="1.0" encoding="iso-8859-1"?>
<!-- Generator: Adobe Illustrator 19.0.0, SVG Export Plug-In . SVG Version: 6.00 Build 0)  -->
<svg xmlns="http://www.w3.org/2000/svg" xmlns:xlink="http://www.w3.org/1999/xlink" version="1.1" id="Capa_1" x="0px" y="0px" viewBox="0 0 511.999 511.999" style="enable-background:new 0 0 511.999 511.999;" xml:space="preserve">
<path style="fill:#70BBEF;" d="M305.961,245.246l-36.483-0.1v0.075h-26.992v-0.076l-36.508,0.1  c17.969,27.607,30.738,66.945,36.508,108.681v137.08c0,7.454,6.042,13.496,13.496,13.496c7.454,0,13.496-6.042,13.496-13.496  V353.922C275.246,312.188,288.006,272.852,305.961,245.246z"/>
<g>
	<path style="fill:#4CAEE5;" d="M256.126,490.807V351.704c-5.515-40.485-17.43-78.737-34.166-106.503l-15.982,0.044   c17.969,27.607,30.738,66.945,36.508,108.681v137.08c0,7.454,6.042,13.496,13.496,13.496c2.5,0,4.835-0.692,6.842-1.877   C258.822,500.249,256.126,495.852,256.126,490.807z"/>
	<path style="fill:#4CAEE5;" d="M132.926,199.796c0.036,24.423,18.625,44.684,42.338,47.426l156.034-0.232   c26.304-0.039,47.793-21.592,47.754-47.896l-0.01-9.958l-246.125,0.366L132.926,199.796z"/>
</g>
<path style="fill:#39A4D3;" d="M157.919,199.796l-0.011-10.293h0.007v-0.037l-25,0.037l0.011,10.293  c0.036,24.423,18.625,44.684,42.338,47.426l24.729-0.037C176.406,244.322,157.955,224.127,157.919,199.796z"/>
<path style="fill:#70BBEF;" d="M390.927,178.957c-0.009-6.089-4.265-11.17-9.958-12.472l-247.127,0.368  c-7.082,0.01-12.814,5.76-12.804,12.842c0.009,6.089,4.265,11.17,9.959,12.472l247.126-0.367  C385.206,191.789,390.938,186.039,390.927,178.957z"/>
<path style="fill:#4CAEE5;" d="M148.295,179.696c-0.01-7.082,5.722-12.832,12.804-12.842l220.017-0.327  c-0.05-0.012-0.097-0.029-0.147-0.04l-247.127,0.367c-7.082,0.01-12.814,5.76-12.804,12.842c0.009,6.089,4.265,11.17,9.959,12.472  l27.109-0.04C152.488,190.772,148.304,185.732,148.295,179.696z"/>
<path d="M398.425,178.946c-0.016-11.288-9.161-19.494-17.468-19.958l-0.996,0.001l-0.21-151.502C379.747,3.35,376.39,0,372.254,0  c-0.003,0-0.007,0-0.011,0c-4.141,0.006-7.493,3.367-7.487,7.509l0.21,151.503l-18.26,0.027L346.498,7.537  C346.492,3.399,343.137,0.05,339,0.05c-0.003,0-0.007,0-0.011,0c-4.141,0.006-7.493,3.367-7.487,7.509l0.209,151.503l-18.26,0.027  L313.242,7.587c-0.006-4.138-3.361-7.487-7.498-7.487c-0.003,0-0.007,0-0.011,0c-4.141,0.006-7.493,3.367-7.487,7.509l0.209,151.502  l-18.26,0.027L279.986,7.636c-0.006-4.138-3.361-7.487-7.498-7.487c-0.003,0-0.007,0-0.011,0c-4.141,0.006-7.493,3.367-7.487,7.509  l0.209,151.503l-18.259,0.027L246.731,7.686c-0.01-7.238-8.185-7.789-7.509-7.487c-4.141,0.006-7.493,3.367-7.487,7.509  l0.21,151.503l-18.26,0.027l-0.21-151.501c-0.01-7.238-8.185-7.789-7.509-7.487c-4.141,0.006-7.493,3.367-7.487,7.509l0.21,151.502  l-18.26,0.027L180.221,7.784c-0.01-7.238-8.185-7.789-7.509-7.487c-4.141,0.006-7.493,3.367-7.487,7.509l0.209,151.503l-18.26,0.027  L146.966,7.834c-0.006-4.138-3.361-7.487-7.498-7.487c-0.003,0-0.007,0-0.011,0c-4.141,0.006-7.493,3.367-7.487,7.509l0.209,151.586  c-20.77,1.713-25.738,30.116-6.754,38.706l0.002,1.658c0.041,28.054,21.096,51.64,48.974,54.864c0.92,0.107,0.406,0.033,27.402,0.01  c16.07,26.065,27.803,61.28,33.184,99.764v72.9c0,4.142,3.356,7.498,7.498,7.498c4.142,0,7.498-3.356,7.498-7.498v-73.418  c0-0.344-0.023-0.687-0.07-1.027c-5.196-37.576-15.758-71.226-30.748-98.245l73.673-0.11  c-15.012,27.035-25.587,60.726-30.786,98.352c-0.047,0.34-0.07,0.683-0.07,1.026v137.083c0,3.308-2.69,5.998-5.998,5.998  s-5.998-2.69-5.998-5.998v-28.671c0-4.142-3.356-7.498-7.498-7.498c-4.142,0-7.498,3.356-7.498,7.498v28.671  c0,11.576,9.418,20.994,20.994,20.994c11.576,0,20.994-9.418,20.994-20.994V354.441c5.389-38.561,17.15-73.843,33.258-99.922  l21.073-0.031c30.469-0.044,55.285-24.933,55.241-55.404l-0.002-1.644C393.554,194.222,398.437,187.149,398.425,178.946z   M331.286,239.492l-155.577,0.231c-20.049-2.526-35.154-19.516-35.284-39.734l181.091-0.27c4.142-0.006,7.493-3.368,7.487-7.509  c-0.006-4.138-3.362-7.487-7.498-7.487c-0.004,0-0.008,0-0.011,0l-113.08,0.168c-2.148-0.665,2.865-0.216-76.393-0.224  c-5.553-2.017-4.085-10.306,1.83-10.316l246.091-0.365c2.079,0.756,3.483,2.719,3.486,4.983c0.005,2.937-2.381,5.329-5.316,5.334  l-20.635,0.03c-1.046,0.001-2.039,0.218-2.943,0.606c-3.193,0.864-5.542,3.776-5.538,7.241c0.006,4.138,3.361,7.487,7.498,7.487  c0.003,0,0.008,0,0.011,0l15.044-0.022C371.293,221.59,353.275,239.46,331.286,239.492z"/>
<g>
</g>
<g>
</g>
<g>
</g>
<g>
</g>
<g>
</g>
<g>
</g>
<g>
</g>
<g>
</g>
<g>
</g>
<g>
</g>
<g>
</g>
<g>
</g>
<g>
</g>
<g>
</g>
<g>
</g>
</svg>
