<?xml version="1.0" encoding="iso-8859-1"?>
<!-- Generator: Adobe Illustrator 19.0.0, SVG Export Plug-In . SVG Version: 6.00 Build 0)  -->
<svg xmlns="http://www.w3.org/2000/svg" xmlns:xlink="http://www.w3.org/1999/xlink" version="1.1" id="Capa_1" x="0px" y="0px" viewBox="0 0 512 512" style="enable-background:new 0 0 512 512;" xml:space="preserve">
<path style="fill:#D83D3D;" d="M269.476,192.513V49.083l89.013,89.012c5.274,5.273,13.824,5.273,19.097,0  c5.273-5.274,5.273-13.823,0-19.097L273.234,14.646c-9.506-9.508-24.999-9.525-34.523-0.001L134.358,118.998  c-5.273,5.274-5.273,13.824,0,19.097c5.273,5.273,13.823,5.273,19.097,0l89.013-89.013v143.433  c-79.878,6.869-142.784,74.07-142.784,155.697c0,86.178,70.11,156.288,156.288,156.288c86.177,0,156.287-70.11,156.287-156.288  C412.26,266.584,349.355,199.384,269.476,192.513z M255.972,477.493c-71.285,0-129.281-57.996-129.281-129.281  s57.995-129.281,129.281-129.281c71.285,0,129.28,57.996,129.28,129.281S327.258,477.493,255.972,477.493z"/>
<g>
	<path style="fill:#C43131;" d="M153.455,138.095l89.013-89.013v0.058l16.577-16.577c7.487-7.488,18.325-8.874,26.966-5.138   l-12.779-12.779c-9.506-9.508-24.999-9.525-34.523-0.001L134.358,118.998c-5.273,5.274-5.273,13.824,0,19.097   C139.632,143.367,148.182,143.367,153.455,138.095z"/>
	<path style="fill:#C43131;" d="M269.64,192.529c-0.055-0.005-0.109-0.011-0.164-0.016c-8.529-1.177-27.007,0-27.007,0   c-79.878,6.87-142.784,74.07-142.784,155.698c0,91.077,78.165,163.672,169.956,155.683   c-72.468-6.309-130.922-62.279-141.054-133.602C114.664,289.734,175.554,200.721,269.64,192.529z"/>
</g>
<path d="M353.185,143.398c8.209,8.207,21.494,8.21,29.705-0.001c8.188-8.188,8.188-21.514,0-29.703L278.538,9.343  c-12.452-12.454-32.674-12.46-45.129-0.003l-49.555,49.555c-2.929,2.93-2.929,7.678,0,10.607c2.929,2.928,7.678,2.928,10.607,0  l49.555-49.556c6.589-6.59,17.322-6.591,23.914,0.003L372.283,124.3c2.34,2.341,2.34,6.149,0,8.489  c-2.344,2.346-6.143,2.348-8.489,0L274.78,43.777c-4.727-4.725-12.805-1.35-12.805,5.304v143.432c0,3.893,2.979,7.139,6.857,7.473  c52.837,4.544,99.628,37.367,122.111,85.658c1.271,2.731,3.978,4.337,6.804,4.337c1.06,0,2.137-0.226,3.16-0.703  c3.756-1.748,5.383-6.209,3.634-9.964c-23.766-51.048-72.227-86.391-127.567-93.536V67.19L353.185,143.398z"/>
<path d="M92.185,348.213C92.185,438.526,165.66,512,255.972,512c103.925,0,181.87-96.023,160.211-197.877  c-0.86-4.052-4.847-6.639-8.896-5.776c-4.052,0.861-6.638,4.844-5.776,8.896c19.705,92.68-51.321,179.757-145.538,179.757  c-82.042,0-148.787-66.745-148.787-148.787c0-77.824,60.013-141.698,135.926-148.226c3.879-0.334,6.857-3.58,6.857-7.473V49.082  c0-3.033-1.827-5.769-4.63-6.929c-2.8-1.16-6.028-0.52-8.173,1.625c-92.906,92.011-88.554,90.772-93.258,90.772  c-5.331,0-8.002-6.49-4.244-10.247l30.033-30.033c2.929-2.93,2.929-7.678,0-10.607c-2.929-2.928-7.678-2.928-10.607,0  l-30.033,30.033c-13.147,13.148-3.81,35.856,14.852,35.856c5.61,0,10.886-2.185,14.853-6.151l76.21-76.21v118.588  C153.876,196.208,92.185,265.667,92.185,348.213z"/>
<path d="M255.972,469.992c-43.66,0-82.885-23.251-104.54-59.387c-2.13-3.554-6.735-4.706-10.289-2.578  c-3.553,2.13-4.707,6.735-2.578,10.289c11.947,19.935,28.881,36.635,48.976,48.293c90.127,52.292,205.212-12.651,205.212-118.399  c0-75.422-61.359-136.781-136.78-136.781c-75.421,0-136.78,61.36-136.78,136.781c0,12.174,1.619,24.277,4.811,35.976  c1.091,3.996,5.213,6.356,9.21,5.261c3.996-1.091,6.352-5.214,5.261-9.21c-2.841-10.411-4.282-21.187-4.282-32.025  c0-67.15,54.631-121.781,121.78-121.781s121.78,54.631,121.78,121.781C377.753,415.362,323.122,469.992,255.972,469.992z"/>
<g>
</g>
<g>
</g>
<g>
</g>
<g>
</g>
<g>
</g>
<g>
</g>
<g>
</g>
<g>
</g>
<g>
</g>
<g>
</g>
<g>
</g>
<g>
</g>
<g>
</g>
<g>
</g>
<g>
</g>
</svg>
