<?xml version="1.0" standalone="no"?>
<!DOCTYPE svg PUBLIC "-//W3C//DTD SVG 20010904//EN"
 "http://www.w3.org/TR/2001/REC-SVG-20010904/DTD/svg10.dtd">
<svg version="1.0" xmlns="http://www.w3.org/2000/svg"
 width="225.000000pt" height="225.000000pt" viewBox="0 0 225.000000 225.000000"
 preserveAspectRatio="xMidYMid meet">
<metadata>
Created by potrace 1.15, written by Peter Selinger 2001-2017
</metadata>
<g transform="translate(0.000000,225.000000) scale(0.100000,-0.100000)"
fill="#000000" stroke="none">
<path d="M1618 2170 c-20 -11 -50 -36 -65 -57 -28 -36 -28 -38 -25 -167 3
-174 6 -186 43 -186 29 0 29 1 29 55 l0 56 35 -7 c58 -10 103 4 151 48 76 70
81 154 15 229 -34 38 -42 42 -91 46 -41 2 -64 -2 -92 -17z m131 -64 c34 -36
37 -84 9 -126 -46 -68 -113 -75 -149 -16 -23 37 -24 67 -4 106 32 62 103 80
144 36z"/>
<path d="M1852 1929 c-59 -30 -92 -80 -92 -142 0 -27 4 -56 10 -66 8 -17 0
-18 -114 -25 l-123 -6 -104 -56 c-57 -31 -147 -78 -199 -106 -132 -70 -150
-89 -116 -118 12 -9 56 10 233 104 l218 115 200 4 c110 3 209 8 220 13 35 13
85 54 100 84 8 16 15 48 15 72 0 116 -133 184 -248 127z m132 -53 c37 -15 66
-50 66 -79 0 -11 -15 -34 -34 -53 -29 -29 -40 -34 -82 -34 -52 1 -74 12 -93
47 -27 51 27 121 102 132 4 0 23 -5 41 -13z"/>
<path d="M328 1758 c-59 -78 -68 -145 -28 -216 25 -44 101 -92 146 -92 41 0
74 -19 95 -55 24 -39 38 -43 62 -17 25 27 21 44 -19 90 -35 41 -63 54 -145 67
-41 6 -84 46 -94 88 -9 34 8 36 23 3 34 -75 123 -79 299 -12 66 25 160 52 208
61 154 27 318 16 418 -27 54 -24 80 -18 85 20 4 25 -26 40 -136 67 -87 21
-273 24 -372 6 -36 -7 -131 -35 -213 -62 -115 -39 -155 -48 -182 -43 -44 8
-65 37 -65 89 0 71 -41 87 -82 33z"/>
<path d="M1475 1488 c-111 -242 -132 -294 -128 -305 3 -7 15 -13 28 -13 19 0
35 26 110 182 81 170 86 183 69 195 -32 24 -45 14 -79 -59z"/>
<path d="M237 1486 c-9 -22 9 -77 37 -115 24 -32 83 -81 97 -81 4 0 19 -4 32
-9 l25 -10 -19 -61 c-10 -34 -23 -91 -29 -127 -9 -57 -8 -69 8 -96 l19 -32
-67 -100 c-36 -55 -71 -111 -76 -125 -19 -43 7 -84 62 -99 28 -7 28 -8 30 -95
2 -56 8 -95 17 -109 10 -16 12 -29 5 -47 -21 -56 14 -129 72 -152 13 -5 76
-15 139 -22 124 -15 141 -24 141 -77 0 -15 3 -34 6 -43 7 -19 55 -21 72 -4 18
18 14 84 -8 128 -23 46 -47 54 -179 65 -131 10 -166 31 -150 89 13 46 11 82
-6 96 -9 8 -13 21 -9 37 4 16 0 30 -11 43 -16 17 -17 25 -7 59 7 21 12 41 12
44 0 14 -35 37 -70 47 -22 6 -40 14 -40 19 0 4 34 60 75 124 41 63 75 120 75
125 0 5 -10 21 -21 36 -18 23 -20 36 -15 74 9 68 48 193 60 197 6 1 37 7 69
13 32 6 102 32 155 57 107 51 165 60 219 32 71 -37 80 -107 33 -257 -34 -107
-37 -171 -14 -230 13 -32 21 -40 38 -38 22 4 22 4 4 74 -11 41 -10 52 26 160
32 99 38 126 34 184 -3 54 -9 74 -30 103 -66 85 -200 102 -311 39 -205 -116
-396 -90 -434 58 -7 27 -15 36 -35 38 -15 2 -28 -3 -31 -12z"/>
<path d="M1573 1454 c-3 -10 -1 -31 6 -48 73 -181 98 -312 82 -431 -16 -109
-33 -146 -175 -374 -71 -114 -87 -249 -46 -405 23 -91 42 -126 69 -126 41 0
44 24 15 112 -23 68 -28 102 -28 188 l-1 105 76 130 c102 174 115 201 139 286
37 136 22 315 -42 482 -27 70 -48 97 -78 97 -6 0 -13 -7 -17 -16z"/>
<path d="M1195 1114 c-40 -21 -64 -43 -81 -76 -32 -62 26 -81 71 -22 52 69
118 64 143 -10 25 -76 -25 -231 -90 -279 -25 -19 -28 -19 -52 -3 -14 9 -26 25
-26 35 0 24 -25 45 -45 37 -27 -10 -29 -37 -6 -83 24 -51 74 -78 122 -68 40 9
113 94 140 163 30 74 33 210 6 259 -32 59 -117 81 -182 47z"/>
</g>
</svg>
